%YAML 1.1
%TAG !u! tag:unity3d.com,2011:
--- !u!21 &2100000
Material:
  serializedVersion: 6
  m_ObjectHideFlags: 0
  m_CorrespondingSourceObject: {fileID: 0}
  m_PrefabInstance: {fileID: 0}
  m_PrefabAsset: {fileID: 0}
  m_Name: Level8-2
  m_Shader: {fileID: 4800000, guid: eb3c6fb598ded4c71b8968e1c40a3b4d, type: 3}
  m_ShaderKeywords: 
  m_LightmapFlags: 0
  m_EnableInstancingVariants: 0
  m_DoubleSidedGI: 0
  m_CustomRenderQueue: -1
  stringTagMap: {}
  disabledShaderPasses: []
  m_SavedProperties:
    serializedVersion: 3
    m_TexEnvs: []
    m_Floats:
    - _HorizonLineContribution: 1
    - _HorizonLineExponent: 3
    - _SkyGradientExponent: 10
    - _SunDiscContribution: 1
    - _SunDiscExponent: 249999.88
    - _SunDiscMultiplier: 2271.9
    - _SunHaloContribution: 0.587
    - _SunHaloExponent: 50
    - _Title: 0
    - __dirty: 0
    m_Colors:
    - _HorizonLineColor: {r: 0.019624414, g: 0.16863187, b: 0.46226418, a: 1}
    - _SkyGradientBottom: {r: 0.5476148, g: 0.30277678, b: 0.7924528, a: 1}
    - _SkyGradientTop: {r: 0.18536644, g: 0.01561943, b: 0.3679245, a: 1}
    - _SunDiscColor: {r: 0.6431373, g: 0.8509804, b: 0.80990815, a: 1}
    - _SunHaloColor: {r: 0.2912354, g: 0.017755438, b: 0.5377358, a: 1}
