%YAML 1.1
%TAG !u! tag:unity3d.com,2011:
--- !u!21 &2100000
Material:
  serializedVersion: 6
  m_ObjectHideFlags: 0
  m_CorrespondingSourceObject: {fileID: 0}
  m_PrefabInstance: {fileID: 0}
  m_PrefabAsset: {fileID: 0}
  m_Name: Level 50
  m_Shader: {fileID: 4800000, guid: eb3c6fb598ded4c71b8968e1c40a3b4d, type: 3}
  m_ShaderKeywords: 
  m_LightmapFlags: 0
  m_EnableInstancingVariants: 0
  m_DoubleSidedGI: 0
  m_CustomRenderQueue: -1
  stringTagMap: {}
  disabledShaderPasses: []
  m_SavedProperties:
    serializedVersion: 3
    m_TexEnvs: []
    m_Ints: []
    m_Floats:
    - _HorizonLineContribution: 0.376
    - _HorizonLineExponent: 6
    - _SkyGradientExponent: 4
    - _SunDiscContribution: 1
    - _SunDiscExponent: 100000
    - _SunDiscMultiplier: 100
    - _SunHaloContribution: 0.5
    - _SunHaloExponent: 50
    - _Title: 0
    - __dirty: 0
    m_Colors:
    - _HorizonLineColor: {r: 1, g: 1, b: 1, a: 1}
    - _SkyGradientBottom: {r: 0.1462264, g: 0.8007864, b: 1, a: 1}
    - _SkyGradientTop: {r: 0.098039225, g: 0.53333336, b: 0.9843138, a: 1}
    - _SunDiscColor: {r: 1, g: 1, b: 1, a: 1}
    - _SunHaloColor: {r: 0.3897059, g: 1, b: 0.89898604, a: 1}
  m_BuildTextureStacks: []
