%YAML 1.1
%TAG !u! tag:unity3d.com,2011:
--- !u!1001 &7538330819037280767
PrefabInstance:
  m_ObjectHideFlags: 0
  serializedVersion: 2
  m_Modification:
    m_TransformParent: {fileID: 0}
    m_Modifications:
    - target: {fileID: 332992599826730783, guid: 9d76f38469832834ab9d0509d536183d, type: 3}
      propertyPath: m_LocalPosition.y
      value: 0.574
      objectReference: {fileID: 0}
    - target: {fileID: 2909394111987294856, guid: 9d76f38469832834ab9d0509d536183d, type: 3}
      propertyPath: m_RootOrder
      value: 0
      objectReference: {fileID: 0}
    - target: {fileID: 2909394111987294856, guid: 9d76f38469832834ab9d0509d536183d, type: 3}
      propertyPath: m_LocalPosition.x
      value: 15.67
      objectReference: {fileID: 0}
    - target: {fileID: 2909394111987294856, guid: 9d76f38469832834ab9d0509d536183d, type: 3}
      propertyPath: m_LocalPosition.y
      value: 1.5799998
      objectReference: {fileID: 0}
    - target: {fileID: 2909394111987294856, guid: 9d76f38469832834ab9d0509d536183d, type: 3}
      propertyPath: m_LocalPosition.z
      value: -2.91
      objectReference: {fileID: 0}
    - target: {fileID: 2909394111987294856, guid: 9d76f38469832834ab9d0509d536183d, type: 3}
      propertyPath: m_LocalRotation.w
      value: 0.96126175
      objectReference: {fileID: 0}
    - target: {fileID: 2909394111987294856, guid: 9d76f38469832834ab9d0509d536183d, type: 3}
      propertyPath: m_LocalRotation.x
      value: 0
      objectReference: {fileID: 0}
    - target: {fileID: 2909394111987294856, guid: 9d76f38469832834ab9d0509d536183d, type: 3}
      propertyPath: m_LocalRotation.y
      value: 0.27563733
      objectReference: {fileID: 0}
    - target: {fileID: 2909394111987294856, guid: 9d76f38469832834ab9d0509d536183d, type: 3}
      propertyPath: m_LocalRotation.z
      value: 0
      objectReference: {fileID: 0}
    - target: {fileID: 2909394111987294856, guid: 9d76f38469832834ab9d0509d536183d, type: 3}
      propertyPath: m_LocalEulerAnglesHint.x
      value: 0
      objectReference: {fileID: 0}
    - target: {fileID: 2909394111987294856, guid: 9d76f38469832834ab9d0509d536183d, type: 3}
      propertyPath: m_LocalEulerAnglesHint.y
      value: 32
      objectReference: {fileID: 0}
    - target: {fileID: 2909394111987294856, guid: 9d76f38469832834ab9d0509d536183d, type: 3}
      propertyPath: m_LocalEulerAnglesHint.z
      value: 0
      objectReference: {fileID: 0}
    - target: {fileID: 2909394111987294857, guid: 9d76f38469832834ab9d0509d536183d, type: 3}
      propertyPath: m_Name
      value: UCtt Rubiks
      objectReference: {fileID: 0}
    - target: {fileID: 3585145195991347929, guid: 9d76f38469832834ab9d0509d536183d, type: 3}
      propertyPath: m_LocalScale.x
      value: 0.35
      objectReference: {fileID: 0}
    - target: {fileID: 3585145195991347929, guid: 9d76f38469832834ab9d0509d536183d, type: 3}
      propertyPath: m_LocalScale.y
      value: 0.35
      objectReference: {fileID: 0}
    - target: {fileID: 3585145195991347929, guid: 9d76f38469832834ab9d0509d536183d, type: 3}
      propertyPath: m_LocalScale.z
      value: 0.35
      objectReference: {fileID: 0}
    - target: {fileID: 3585145195991347929, guid: 9d76f38469832834ab9d0509d536183d, type: 3}
      propertyPath: m_LocalPosition.y
      value: 0.3
      objectReference: {fileID: 0}
    - target: {fileID: 3585145195991347929, guid: 9d76f38469832834ab9d0509d536183d, type: 3}
      propertyPath: m_LocalRotation.w
      value: 0.17716679
      objectReference: {fileID: 0}
    - target: {fileID: 3585145195991347929, guid: 9d76f38469832834ab9d0509d536183d, type: 3}
      propertyPath: m_LocalRotation.x
      value: -0.34090185
      objectReference: {fileID: 0}
    - target: {fileID: 3585145195991347929, guid: 9d76f38469832834ab9d0509d536183d, type: 3}
      propertyPath: m_LocalRotation.y
      value: -0.42308146
      objectReference: {fileID: 0}
    - target: {fileID: 3585145195991347929, guid: 9d76f38469832834ab9d0509d536183d, type: 3}
      propertyPath: m_LocalRotation.z
      value: 0.8206095
      objectReference: {fileID: 0}
    - target: {fileID: 3585145195991347929, guid: 9d76f38469832834ab9d0509d536183d, type: 3}
      propertyPath: m_LocalEulerAnglesHint.x
      value: 35
      objectReference: {fileID: 0}
    - target: {fileID: 3585145195991347929, guid: 9d76f38469832834ab9d0509d536183d, type: 3}
      propertyPath: m_LocalEulerAnglesHint.y
      value: -60
      objectReference: {fileID: 0}
    - target: {fileID: 3585145195991347929, guid: 9d76f38469832834ab9d0509d536183d, type: 3}
      propertyPath: m_LocalEulerAnglesHint.z
      value: 135
      objectReference: {fileID: 0}
    - target: {fileID: 7119488762322509878, guid: 9d76f38469832834ab9d0509d536183d, type: 3}
      propertyPath: m_IsActive
      value: 0
      objectReference: {fileID: 0}
    m_RemovedComponents: []
  m_SourcePrefab: {fileID: 100100000, guid: 9d76f38469832834ab9d0509d536183d, type: 3}
